\relax 
\@writefile{toc}{\contentsline {section}{\numberline {1}Implementaci\'on}{3}}
\@writefile{toc}{\contentsline {subsection}{\numberline {1.1}Creado de threads para cada jugador}{3}}
\@writefile{toc}{\contentsline {subsection}{\numberline {1.2}Manejo del tablero de cartas}{3}}
\@writefile{toc}{\contentsline {section}{\numberline {2}Casos de test}{4}}
\@writefile{toc}{\contentsline {subsection}{\numberline {2.1}Resultados}{4}}
\@setckpt{./implementacion}{
\setcounter{page}{6}
\setcounter{equation}{0}
\setcounter{enumi}{0}
\setcounter{enumii}{0}
\setcounter{enumiii}{0}
\setcounter{enumiv}{0}
\setcounter{footnote}{0}
\setcounter{mpfootnote}{0}
\setcounter{part}{0}
\setcounter{section}{2}
\setcounter{subsection}{1}
\setcounter{subsubsection}{0}
\setcounter{paragraph}{0}
\setcounter{subparagraph}{0}
\setcounter{figure}{0}
\setcounter{table}{0}
\setcounter{lstnumber}{1}
\setcounter{ALC@line}{0}
\setcounter{ALC@rem}{0}
\setcounter{float@type}{16}
\setcounter{algorithm}{0}
\setcounter{parentequation}{0}
\setcounter{lstlisting}{0}
}
