\select@language {spanish}
\contentsline {section}{\numberline {1}Implementaci\'on}{3}
\contentsline {subsection}{\numberline {1.1}Creado de threads para cada jugador}{3}
\contentsline {subsection}{\numberline {1.2}Manejo del tablero de cartas}{3}
\contentsline {section}{\numberline {2}Casos de test}{4}
\contentsline {subsection}{\numberline {2.1}Resultados}{4}
