\select@language {english}
\contentsline {section}{\numberline {1}Ejercicio 1}{3}
\contentsline {section}{\numberline {2}Ejercicio 2}{3}
\contentsline {section}{\numberline {3}Ejercicio 3}{4}
\contentsline {section}{\numberline {4}Ejercicio 5}{5}
\contentsline {subsection}{\numberline {4.1}Comparaci\'on de los resultados}{8}
\contentsline {section}{\numberline {5}Ejercicio 6}{8}
\contentsline {section}{\numberline {6}Ejercicio 8}{8}
