\relax 
\select@language{english}
\@writefile{toc}{\select@language{english}}
\@writefile{lof}{\select@language{english}}
\@writefile{lot}{\select@language{english}}
\@writefile{toc}{\contentsline {section}{\numberline {1}Ejercicio 1}{3}}
\@writefile{lof}{\contentsline {figure}{\numberline {1}{\ignorespaces Grafico del ejercicio uno, con un nucleo.}}{3}}
\@writefile{toc}{\contentsline {section}{\numberline {2}Ejercicio 2}{3}}
\@writefile{lof}{\contentsline {figure}{\numberline {2}{\ignorespaces Grafico del ejercicio dos, con un nucleo.}}{3}}
\@writefile{lof}{\contentsline {figure}{\numberline {3}{\ignorespaces Grafico del ejercicio dos, con dos nucleos.}}{3}}
\@writefile{lof}{\contentsline {figure}{\numberline {4}{\ignorespaces Grafico del ejercicio dos, con cuatro nucleos.}}{4}}
\@writefile{toc}{\contentsline {section}{\numberline {3}Ejercicio 3}{4}}
\@writefile{lof}{\contentsline {figure}{\numberline {5}{\ignorespaces Grafico del ejercicio tres, con un nucleo.}}{5}}
\@writefile{toc}{\contentsline {section}{\numberline {4}Ejercicio 5}{5}}
\@writefile{lof}{\contentsline {figure}{\numberline {6}{\ignorespaces Grafico del ejercicio cinco, con quantum 2}}{6}}
\@writefile{lof}{\contentsline {figure}{\numberline {7}{\ignorespaces Grafico del ejercicio cinco, con quantum 5}}{6}}
\@writefile{lof}{\contentsline {figure}{\numberline {8}{\ignorespaces Grafico del ejercicio cinco, con quantum 10}}{7}}
\@writefile{toc}{\contentsline {subsection}{\numberline {4.1}Comparaci\'on de los resultados}{8}}
\@writefile{lot}{\contentsline {table}{\numberline {1}{\ignorespaces Comparaci\'on de promedios}}{8}}
\@writefile{toc}{\contentsline {section}{\numberline {5}Ejercicio 6}{8}}
\@writefile{toc}{\contentsline {section}{\numberline {6}Ejercicio 8}{8}}
