\relax 
\catcode `"\active 
\catcode `<\active 
\catcode `>\active 
\@nameuse{es@quoting}
\select@language{spanish}
\@writefile{toc}{\select@language{spanish}}
\@writefile{lof}{\select@language{spanish}}
\@writefile{lot}{\select@language{spanish}}
\@writefile{toc}{\contentsline {section}{\numberline {1}Aclaraci\IeC {\'o}n en la implementaci\IeC {\'o}n de funciones:}{2}}
\@writefile{toc}{\contentsline {section}{\numberline {2}Casos de test:}{2}}
